{
    "prepare_queue": {
        "installed": [],
        "uninstalled": []
    },
    "config_munge": {
        "files": {
            "framework": {
                "parents": {
                    "ImageIO.framework": [
                        {
                            "xml": true,
                            "count": 1
                        }
                    ],
                    "MobileCoreServices.framework": [
                        {
                            "xml": false,
                            "count": 1
                        }
                    ],
                    "CoreLocation.framework": [
                        {
                            "xml": false,
                            "count": 1
                        }
                    ],
                    "CoreGraphics.framework": [
                        {
                            "xml": false,
                            "count": 2
                        }
                    ],
                    "AssetsLibrary.framework": [
                        {
                            "xml": false,
                            "count": 1
                        }
                    ],
                    "CoreImage.framework": [
                        {
                            "xml": false,
                            "count": 1
                        }
                    ],
                    "OpenGLES.framework": [
                        {
                            "xml": false,
                            "count": 1
                        }
                    ],
                    "GLKit.framework": [
                        {
                            "xml": false,
                            "count": 1
                        }
                    ],
                    "CoreVideo.framework": [
                        {
                            "xml": false,
                            "count": 1
                        }
                    ]
                }
            },
            "config.xml": {
                "parents": {
                    "/*": [
                        {
                            "xml": "<feature name=\"CameraPreview\"><param name=\"ios-package\" onload=\"true\" value=\"CameraPreview\" /></feature>",
                            "count": 1
                        }
                    ]
                }
            }
        }
    },
    "installed_plugins": {
        "com.mbppower.camerapreview": {
            "PACKAGE_NAME": "my.sample.app"
        }
    },
    "dependent_plugins": {}
}